Group	r	r.fg	r.bg	AIC1	AIC2	diffLnL	P.value
[1]	1e-12	1e-12	1e-12	9.54879	11.5488	0	1
[2]	2.87881	4.88022	2.3904	36.7464	38.4485	0.148987	0.585156
[3]	8.38877	20.6639	6.78318	97.1089	97.5866	0.761178	0.217263
[4]	2.77278	3.59576	2.57793	46.9253	48.8495	0.0379009	0.78307
[5]	1e-12	1e-12	1e-12	7.76692	9.76692	0	1
[6]	1e-12	1e-12	1e-12	10.8347	12.8347	0	1
[7]	1e-12	1e-12	1e-12	6.62364	8.62364	0	1
[8]	1.86113	1e-12	2.38684	28.6258	29.6425	0.491651	0.321385
[9]	1e-12	1e-12	1e-12	7.58731	9.58731	0	1
[10]	1e-12	1e-12	1e-12	7.86416	9.86416	0	1
[11]	0.622153	1e-12	0.792446	22.4237	23.9414	0.241164	0.48737
[12]	1e-12	1e-12	1e-12	9.60141	11.6014	0	1
[13]	1e-12	1e-12	1e-12	7.47908	9.47908	0	1
[14]	1e-12	1e-12	1e-12	7.87297	9.87297	0	1
[15]	1e-12	1e-12	1e-12	7.55618	9.55618	0	1
[16]	1e-12	1e-12	1e-12	7.71762	9.71762	0	1
[17]	1e-12	1e-12	1e-12	7.86416	9.86416	0	1
[18]	1e-12	1e-12	1e-12	6.62364	8.62364	0	1
[19]	1e-12	1e-12	1e-12	8.75369	10.7537	0	1
[20]	0.936225	1e-12	1.19553	19.6867	21.2032	0.241708	0.486879
[21]	1e-12	1e-12	1e-12	6.62364	8.62364	0	1
[22]	1e-12	1e-12	1e-12	8.32584	10.3258	0	1
[23]	1.47337	1e-12	1.8798	23.477	24.9919	0.242554	0.486118
[24]	1e-12	1e-12	1e-12	7.07494	9.07494	0	1
[25]	1e-12	1e-12	1e-12	10.8347	12.8347	0	1
[26]	1e-12	1e-12	1e-12	7.07494	9.07494	0	1
[27]	1e-12	1e-12	1e-12	7.71762	9.71762	0	1
[28]	2.31002	8.62785	1.30904	44.4093	43.2465	1.58139	0.0753349
[29]	3.32574	15.6364	1.48134	53.9854	50.1845	2.90041	0.0160187
[30]	1e-12	1e-12	1e-12	7.71762	9.71762	0	1
[31]	0.60256	2.95645	1e-12	23.4525	22.2935	1.57947	0.0755119
[32]	2.12928	1e-12	2.75211	36.209	36.6958	0.756611	0.218648
[33]	0.95208	1e-12	1.22149	18.5427	20.0501	0.246319	0.482753
[34]	1e-12	1e-12	1e-12	7.58731	9.58731	0	1
[35]	4.0141	1e-12	5.23642	38.4508	38.4092	1.02082	0.153045
[36]	1e-12	1e-12	1e-12	6.62364	8.62364	0	1
[37]	1e-12	1e-12	1e-12	7.55618	9.55618	0	1
[38]	1e-12	1e-12	1e-12	7.76692	9.76692	0	1
[39]	1.40646	1e-12	1.81327	29.3044	30.3025	0.500961	0.316846
[40]	1e-12	1e-12	1e-12	7.27371	9.27371	0	1
[41]	1e-12	1e-12	1e-12	6.62364	8.62364	0	1
[42]	1e-12	1e-12	1e-12	7.71762	9.71762	0	1
[43]	1e-12	1e-12	1e-12	8.39976	10.3998	0	1
[44]	1e-12	1e-12	1e-12	8.24531	10.2453	0	1
[45]	1e-12	1e-12	1e-12	7.71762	9.71762	0	1
[46]	6.41119	3.2374	7.4659	78.844	80.1631	0.340429	0.409292
[47]	1e-12	1e-12	1e-12	6.62364	8.62364	0	1
[48]	1.89169	1e-12	2.42534	25.6967	26.7254	0.485658	0.324352
[49]	1e-12	1e-12	1e-12	7.71762	9.71762	0	1
[50]	0.808141	3.15728	1e-12	18.8758	18.1651	1.35536	0.0996755
[51]	1e-12	1e-12	1e-12	7.87297	9.87297	0	1
[52]	0.608614	3.25001	1e-12	21.3314	19.9905	1.67046	0.0675768
[53]	0.534549	1e-12	0.685851	18.3542	19.8603	0.246919	0.48222
[54]	1e-12	1e-12	1e-12	8.75369	10.7537	0	1
[55]	0.634257	1e-12	0.812293	20.0964	21.6034	0.24649	0.482601
[56]	1.20155	1e-12	1.56914	30.6284	31.5794	0.524528	0.305725
[57]	4.2128	1e-12	5.58238	53.3269	52.5081	1.40938	0.0931686
[58]	1e-12	1e-12	1e-12	7.34304	9.34304	0	1
[59]	1e-12	1e-12	1e-12	7.86416	9.86416	0	1
[60]	1e-12	1e-12	1e-12	7.07494	9.07494	0	1
[61]	1e-12	1e-12	1e-12	9.60141	11.6014	0	1
[62]	1e-12	1e-12	1e-12	7.07494	9.07494	0	1
[63]	1e-12	1e-12	1e-12	8.32584	10.3258	0	1
[64]	0.557542	1e-12	0.711883	15.6579	17.173	0.242482	0.486183
[65]	0.493182	1e-12	0.633351	19.9264	21.4273	0.249516	0.479925
[66]	1e-12	1e-12	1e-12	7.55618	9.55618	0	1
[67]	1e-12	1e-12	1e-12	8.32584	10.3258	0	1
[68]	1e-12	1e-12	1e-12	8.32584	10.3258	0	1
[69]	0.998828	2.35948	0.633351	31.8595	33.057	0.40127	0.370335
[70]	1e-12	1e-12	1e-12	7.34304	9.34304	0	1
[71]	0.493181	1e-12	0.633351	19.9264	21.4273	0.249516	0.479925
[72]	1e-12	1e-12	1e-12	8.24531	10.2453	0	1
[73]	0.532727	1e-12	0.682983	21.8273	23.3353	0.24599	0.483046
[74]	1e-12	1e-12	1e-12	9.54879	11.5488	0	1
[75]	0.543504	1e-12	0.700444	16.9342	18.4311	0.251565	0.478128
[76]	1e-12	1e-12	1e-12	7.71762	9.71762	0	1
[77]	1e-12	1e-12	1e-12	7.71762	9.71762	0	1
[78]	1e-12	1e-12	1e-12	8.32584	10.3258	0	1
[79]	1e-12	1e-12	1e-12	7.71762	9.71762	0	1
[80]	1e-12	1e-12	1e-12	8.34127	10.3413	0	1
[81]	1e-12	1e-12	1e-12	10.8347	12.8347	0	1
[82]	1e-12	1e-12	1e-12	6.62364	8.62364	0	1
[83]	0.655275	1e-12	0.870257	19.8543	21.274	0.290155	0.446191
[84]	1e-12	1e-12	1e-12	8.24531	10.2453	0	1
[85]	1e-12	1e-12	1e-12	6.62364	8.62364	0	1
[86]	0.493181	1e-12	0.633351	19.9264	21.4273	0.249516	0.479925
[87]	1e-12	1e-12	1e-12	7.55618	9.55618	0	1
[88]	1e-12	1e-12	1e-12	7.71762	9.71762	0	1
[89]	0.68344	1e-12	0.872665	19.0462	20.5599	0.243156	0.485577
[90]	1e-12	1e-12	1e-12	8.24531	10.2453	0	1
[91]	1e-12	1e-12	1e-12	7.87297	9.87297	0	1
[92]	0.493181	1e-12	0.633351	19.9264	21.4273	0.249516	0.479925
[93]	1e-12	1e-12	1e-12	7.07494	9.07494	0	1
[94]	1e-12	1e-12	1e-12	8.32584	10.3258	0	1
[95]	1e-12	1e-12	1e-12	8.24531	10.2453	0	1
[96]	1e-12	1e-12	1e-12	7.76692	9.76692	0	1
[97]	2.14622	2.92869	1.97003	43.8999	45.7915	0.0542138	0.741941
[98]	1e-12	1e-12	1e-12	8.34127	10.3413	0	1
[99]	1e-12	1e-12	1e-12	8.34127	10.3413	0	1
[100]	0.493181	1e-12	0.633351	19.9264	21.4273	0.249516	0.479925
[101]	1e-12	1e-12	1e-12	7.58731	9.58731	0	1
[102]	1e-12	1e-12	1e-12	8.32584	10.3258	0	1
[103]	1e-12	1e-12	1e-12	10.8347	12.8347	0	1
[104]	1e-12	1e-12	1e-12	6.62364	8.62364	0	1
[105]	1e-12	1e-12	1e-12	6.62364	8.62364	0	1
[106]	1e-12	1e-12	1e-12	8.24531	10.2453	0	1
[107]	1e-12	1e-12	1e-12	8.24531	10.2453	0	1
[108]	1e-12	1e-12	1e-12	7.58731	9.58731	0	1
[109]	0.916738	4.46299	1e-12	22.3228	21.1845	1.56915	0.0764739
[110]	0.935186	1e-12	1.19367	15.8521	17.3694	0.241391	0.487165
[111]	1e-12	1e-12	1e-12	6.62364	8.62364	0	1
[112]	1e-12	1e-12	1e-12	6.62364	8.62364	0	1
[113]	1.8082	3.73752	1.18271	27.6351	29.0172	0.308975	0.43181
[114]	2.15334	1e-12	2.78879	35.0138	35.482	0.765884	0.215847
[115]	1e-12	1e-12	1e-12	7.58731	9.58731	0	1
[116]	1.14018	8.13024	1e-12	29.3019	23.4651	3.91839	0.00511936
[117]	2.75815	10.2909	1.33199	58.0862	55.5304	2.2779	0.0328075
[118]	1.13066	1e-12	1.45152	27.532	28.5521	0.489985	0.322206
[119]	1e-12	1e-12	1e-12	7.27371	9.27371	0	1
[120]	1e-12	1e-12	1e-12	7.07494	9.07494	0	1
[121]	1e-12	1e-12	1e-12	7.71762	9.71762	0	1
[122]	1.37213	1e-12	1.75619	28.2054	29.2311	0.48713	0.32362
[123]	1e-12	1e-12	1e-12	7.71762	9.71762	0	1
[124]	1e-12	1e-12	1e-12	7.86416	9.86416	0	1
[125]	1e-12	1e-12	1e-12	7.71762	9.71762	0	1
[126]	1e-12	1e-12	1e-12	10.8347	12.8347	0	1
[127]	1e-12	1e-12	1e-12	7.86416	9.86416	0	1
[128]	1e-12	1e-12	1e-12	7.34304	9.34304	0	1
[129]	1e-12	1e-12	1e-12	8.75369	10.7537	0	1
[130]	1e-12	1e-12	1e-12	8.24531	10.2453	0	1
[131]	1e-12	1e-12	1e-12	8.24531	10.2453	0	1
[132]	1e-12	1e-12	1e-12	6.62364	8.62364	0	1
[133]	0.686073	3.41409	1e-12	18.7437	17.5576	1.59305	0.074267
[134]	1e-12	1e-12	1e-12	7.71762	9.71762	0	1
[135]	1e-12	1e-12	1e-12	8.34127	10.3413	0	1
[136]	2.93719	11.3057	1.16564	33.598	32.1189	1.73956	0.062148
[137]	0.648431	2.66242	1e-12	17.9056	17.1056	1.39997	0.0942675
[138]	1e-12	1e-12	1e-12	9.60141	11.6014	0	1
[139]	0.78122	8.22799	1e-12	20.9714	18.276	2.34773	0.0302424
[140]	1e-12	1e-12	1e-12	7.71762	9.71762	0	1
[141]	0.678503	1e-12	0.86461	16.705	18.2226	0.241172	0.487362
[142]	1e-12	1e-12	1e-12	7.58731	9.58731	0	1
[143]	1e-12	1e-12	1e-12	7.34304	9.34304	0	1
[144]	1e-12	1e-12	1e-12	7.87297	9.87297	0	1
[145]	1e-12	1e-12	1e-12	6.62364	8.62364	0	1
[146]	2.72734	3.04471	2.63716	47.073	49.0585	0.00724433	0.904191
[147]	1e-12	1e-12	1e-12	7.55618	9.55618	0	1
[148]	1e-12	1e-12	1e-12	8.32584	10.3258	0	1
[149]	1e-12	1e-12	1e-12	7.58731	9.58731	0	1
[150]	1e-12	1e-12	1e-12	6.62364	8.62364	0	1
[151]	1e-12	1e-12	1e-12	9.60141	11.6014	0	1
[152]	1e-12	1e-12	1e-12	6.62364	8.62364	0	1
[153]	1e-12	1e-12	1e-12	7.07494	9.07494	0	1
[154]	1e-12	1e-12	1e-12	7.71762	9.71762	0	1
[155]	3.00695	5.90896	2.26533	42.9536	44.0372	0.458193	0.338426
[156]	1e-12	1e-12	1e-12	7.58731	9.58731	0	1
[157]	1e-12	1e-12	1e-12	7.58731	9.58731	0	1
[158]	1e-12	1e-12	1e-12	7.55618	9.55618	0	1
[159]	1e-12	1e-12	1e-12	6.62364	8.62364	0	1
[160]	1.45448	1e-12	1.84962	18.8391	20.3609	0.239075	0.489261
[161]	1e-12	1e-12	1e-12	7.07494	9.07494	0	1
[162]	1e-12	1e-12	1e-12	7.55618	9.55618	0	1
[163]	1e-12	1e-12	1e-12	8.34127	10.3413	0	1
[164]	1e-12	1e-12	1e-12	8.32584	10.3258	0	1
[165]	1e-12	1e-12	1e-12	7.55618	9.55618	0	1
[166]	1e-12	1e-12	1e-12	7.86416	9.86416	0	1
[167]	1e-12	1e-12	1e-12	7.86416	9.86416	0	1
[168]	0.529351	1e-12	0.677178	16.3396	17.8512	0.24419	0.484651
[169]	1e-12	1e-12	1e-12	7.55618	9.55618	0	1
[170]	1e-12	1e-12	1e-12	8.34127	10.3413	0	1
[171]	0.493181	1e-12	0.633351	19.9264	21.4273	0.249516	0.479925
[172]	1e-12	1e-12	1e-12	7.47908	9.47908	0	1
[173]	1.77335	1e-12	2.25871	22.9677	24.4849	0.241395	0.487161
[174]	1e-12	1e-12	1e-12	8.24531	10.2453	0	1
[175]	1e-12	1e-12	1e-12	7.07494	9.07494	0	1
[176]	2.78344	2.52073	2.85705	56.8609	58.8483	0.00629874	0.910634
[177]	3.75351	3.12679	3.90195	58.8342	60.7945	0.0198514	0.842063
[178]	1e-12	1e-12	1e-12	8.39976	10.3998	0	1
[179]	1e-12	1e-12	1e-12	8.75369	10.7537	0	1
[180]	0.596106	1e-12	0.761029	21.2811	22.7939	0.243584	0.485194
[181]	0.591004	1e-12	0.750556	25.9199	27.4443	0.237797	0.490425
[182]	1e-12	1e-12	1e-12	8.24531	10.2453	0	1
[183]	1e-12	1e-12	1e-12	6.62364	8.62364	0	1
[184]	1e-12	1e-12	1e-12	8.32584	10.3258	0	1
[185]	1e-12	1e-12	1e-12	7.34304	9.34304	0	1
[186]	1e-12	1e-12	1e-12	10.8347	12.8347	0	1
[187]	1e-12	1e-12	1e-12	7.58731	9.58731	0	1
[188]	1.76225	2.9835	1.45985	28.127	29.8275	0.149754	0.584191
[189]	3.03634	1e-12	3.96406	40.3358	40.7779	0.778934	0.211978
[190]	1.07216	1e-12	1.37687	22.6104	23.6253	0.492542	0.320947
[191]	1e-12	1e-12	1e-12	7.86416	9.86416	0	1
[192]	1e-12	1e-12	1e-12	7.07494	9.07494	0	1
[193]	1.16314	3.15493	0.712762	23.6812	24.697	0.492104	0.321162
[194]	1e-12	1e-12	1e-12	6.62364	8.62364	0	1
[195]	1e-12	1e-12	1e-12	6.62364	8.62364	0	1
[196]	1e-12	1e-12	1e-12	6.62364	8.62364	0	1
[197]	1e-12	1e-12	1e-12	6.62364	8.62364	0	1
[198]	1.06393	1e-12	1.36682	28.8927	29.9	0.496317	0.319099
[199]	1e-12	1e-12	1e-12	6.62364	8.62364	0	1
[200]	1e-12	1e-12	1e-12	8.24531	10.2453	0	1
[201]	1e-12	1e-12	1e-12	7.34304	9.34304	0	1
[202]	1e-12	1e-12	1e-12	6.62364	8.62364	0	1
[203]	1e-12	1e-12	1e-12	7.07494	9.07494	0	1
[204]	1e-12	1e-12	1e-12	7.07494	9.07494	0	1
[205]	1e-12	1e-12	1e-12	7.71762	9.71762	0	1
[206]	1e-12	1e-12	1e-12	7.55618	9.55618	0	1
[207]	1e-12	1e-12	1e-12	7.86416	9.86416	0	1
[208]	0.493181	1e-12	0.633351	19.9264	21.4273	0.249516	0.479925
[209]	1e-12	1e-12	1e-12	6.62364	8.62364	0	1
[210]	1e-12	1e-12	1e-12	6.62364	8.62364	0	1
[211]	1e-12	1e-12	1e-12	7.86416	9.86416	0	1
[212]	1e-12	1e-12	1e-12	7.87297	9.87297	0	1
[213]	1e-12	1e-12	1e-12	7.76692	9.76692	0	1
[214]	1e-12	1e-12	1e-12	8.34127	10.3413	0	1
[215]	0.948382	1e-12	1.21543	18.1803	19.6898	0.245243	0.483711
[216]	1e-12	1e-12	1e-12	8.34127	10.3413	0	1
[217]	1e-12	1e-12	1e-12	7.86416	9.86416	0	1
[218]	1e-12	1e-12	1e-12	7.86416	9.86416	0	1
[219]	1e-12	1e-12	1e-12	8.32584	10.3258	0	1
[220]	1e-12	1e-12	1e-12	8.32584	10.3258	0	1
[221]	1e-12	1e-12	1e-12	7.87297	9.87297	0	1
[222]	1e-12	1e-12	1e-12	8.24531	10.2453	0	1
[223]	1.36309	3.2399	0.864614	26.0368	27.2403	0.398257	0.372138
[224]	1e-12	1e-12	1e-12	7.71762	9.71762	0	1
[225]	1e-12	1e-12	1e-12	7.71762	9.71762	0	1
[226]	1e-12	1e-12	1e-12	7.71762	9.71762	0	1
[227]	1e-12	1e-12	1e-12	7.87297	9.87297	0	1
[228]	1e-12	1e-12	1e-12	8.24531	10.2453	0	1
[229]	0.531873	1e-12	0.681511	18.1662	19.6752	0.245534	0.483451
[230]	1e-12	1e-12	1e-12	6.62364	8.62364	0	1
[231]	1e-12	1e-12	1e-12	8.75369	10.7537	0	1
[232]	1e-12	1e-12	1e-12	8.39976	10.3998	0	1
[233]	1e-12	1e-12	1e-12	9.60141	11.6014	0	1
[234]	1e-12	1e-12	1e-12	6.62364	8.62364	0	1
[235]	1e-12	1e-12	1e-12	8.32584	10.3258	0	1
[236]	1e-12	1e-12	1e-12	10.8347	12.8347	0	1
[237]	1e-12	1e-12	1e-12	8.32584	10.3258	0	1
[238]	1e-12	1e-12	1e-12	8.32584	10.3258	0	1
[239]	1e-12	1e-12	1e-12	7.71762	9.71762	0	1
[240]	1e-12	1e-12	1e-12	9.60141	11.6014	0	1
[241]	1e-12	1e-12	1e-12	8.24531	10.2453	0	1
[242]	1e-12	1e-12	1e-12	7.27371	9.27371	0	1
[243]	1e-12	1e-12	1e-12	7.34304	9.34304	0	1
[244]	1e-12	1e-12	1e-12	8.75369	10.7537	0	1
[245]	0.528892	1e-12	0.672395	19.067	20.591	0.238009	0.490232
[246]	1e-12	1e-12	1e-12	6.62364	8.62364	0	1
[247]	1e-12	1e-12	1e-12	7.55618	9.55618	0	1
[248]	1e-12	1e-12	1e-12	6.62364	8.62364	0	1
[249]	1e-12	1e-12	1e-12	8.24531	10.2453	0	1
[250]	1e-12	1e-12	1e-12	7.71762	9.71762	0	1
[251]	1e-12	1e-12	1e-12	8.32584	10.3258	0	1
[252]	1e-12	1e-12	1e-12	7.71762	9.71762	0	1
[253]	3.47825	1e-12	4.75887	66.6853	65.0859	1.79969	0.0578009
[254]	1.10343	2.9493	0.678592	24.7009	25.7421	0.479369	0.327505
[255]	1e-12	1e-12	1e-12	7.58731	9.58731	0	1
[256]	1e-12	1e-12	1e-12	9.60141	11.6014	0	1
[257]	0.534619	1e-12	0.685986	17.788	19.2941	0.246959	0.482185
[258]	1e-12	1e-12	1e-12	7.34304	9.34304	0	1
[259]	0.626348	1e-12	0.807824	18.7245	20.2168	0.253858	0.47613
[260]	2.09519	10.1841	1e-12	31.6228	27.3712	3.12582	0.0124079
[261]	1e-12	1e-12	1e-12	8.75369	10.7537	0	1
[262]	0.524655	1e-12	0.671184	21.4804	22.9904	0.244998	0.483929
[263]	1e-12	1e-12	1e-12	7.71762	9.71762	0	1
[264]	1e-12	1e-12	1e-12	7.47908	9.47908	0	1
[265]	0.76578	3.81985	1e-12	20.9515	19.77	1.59073	0.0744781
[266]	1e-12	1e-12	1e-12	7.27371	9.27371	0	1
[267]	1e-12	1e-12	1e-12	8.24531	10.2453	0	1
[268]	1e-12	1e-12	1e-12	8.32584	10.3258	0	1
[269]	1e-12	1e-12	1e-12	7.71762	9.71762	0	1
[270]	1e-12	1e-12	1e-12	8.75369	10.7537	0	1
[271]	1e-12	1e-12	1e-12	9.54879	11.5488	0	1
[272]	1e-12	1e-12	1e-12	7.71762	9.71762	0	1
[273]	0.493181	1e-12	0.633351	19.9264	21.4273	0.249516	0.479925
[274]	1e-12	1e-12	1e-12	7.34304	9.34304	0	1
[275]	1e-12	1e-12	1e-12	10.8347	12.8347	0	1
[276]	1e-12	1e-12	1e-12	7.07494	9.07494	0	1
[277]	1e-12	1e-12	1e-12	9.54879	11.5488	0	1
[278]	1.57585	2.48227	1.33167	40.5196	42.2829	0.118379	0.626557
[279]	1e-12	1e-12	1e-12	7.58731	9.58731	0	1
[280]	1e-12	1e-12	1e-12	7.55618	9.55618	0	1
[281]	1e-12	1e-12	1e-12	7.71762	9.71762	0	1
[282]	1e-12	1e-12	1e-12	8.32584	10.3258	0	1
[283]	1e-12	1e-12	1e-12	6.62364	8.62364	0	1
[284]	1e-12	1e-12	1e-12	7.71762	9.71762	0	1
[285]	1e-12	1e-12	1e-12	8.32584	10.3258	0	1
[286]	1e-12	1e-12	1e-12	7.55618	9.55618	0	1
[287]	1e-12	1e-12	1e-12	7.34304	9.34304	0	1
[288]	1e-12	1e-12	1e-12	10.8347	12.8347	0	1
[289]	1e-12	1e-12	1e-12	7.07494	9.07494	0	1
[290]	1e-12	1e-12	1e-12	9.60141	11.6014	0	1
[291]	1e-12	1e-12	1e-12	9.60141	11.6014	0	1
[292]	0.493181	1e-12	0.633351	19.9264	21.4273	0.249516	0.479925
[293]	1e-12	1e-12	1e-12	8.32584	10.3258	0	1
[294]	1e-12	1e-12	1e-12	7.86416	9.86416	0	1
[295]	1e-12	1e-12	1e-12	7.34304	9.34304	0	1
[296]	1e-12	1e-12	1e-12	7.71762	9.71762	0	1
[297]	1.16639	1e-12	1.56274	29.8898	30.6869	0.601433	0.272749
[298]	1e-12	1e-12	1e-12	7.87297	9.87297	0	1
[299]	1e-12	1e-12	1e-12	7.34304	9.34304	0	1
[300]	1e-12	1e-12	1e-12	7.87297	9.87297	0	1
[301]	1e-12	1e-12	1e-12	7.86416	9.86416	0	1
[302]	1e-12	1e-12	1e-12	7.76692	9.76692	0	1
[303]	1e-12	1e-12	1e-12	7.07494	9.07494	0	1
[304]	1e-12	1e-12	1e-12	8.75369	10.7537	0	1
[305]	1e-12	1e-12	1e-12	8.32584	10.3258	0	1
[306]	1e-12	1e-12	1e-12	7.86416	9.86416	0	1
[307]	1e-12	1e-12	1e-12	7.58731	9.58731	0	1
[308]	1e-12	1e-12	1e-12	7.07494	9.07494	0	1
[309]	1e-12	1e-12	1e-12	7.86416	9.86416	0	1
[310]	0.493181	1e-12	0.633351	19.9264	21.4273	0.249516	0.479925
[311]	1e-12	1e-12	1e-12	7.55618	9.55618	0	1
[312]	1e-12	1e-12	1e-12	7.55618	9.55618	0	1
[313]	1e-12	1e-12	1e-12	7.07494	9.07494	0	1
[314]	1e-12	1e-12	1e-12	7.55618	9.55618	0	1
[315]	1e-12	1e-12	1e-12	8.24531	10.2453	0	1
[316]	1e-12	1e-12	1e-12	7.86416	9.86416	0	1
[317]	1e-12	1e-12	1e-12	7.71762	9.71762	0	1
[318]	1e-12	1e-12	1e-12	7.34304	9.34304	0	1
[319]	1e-12	1e-12	1e-12	7.47908	9.47908	0	1
[320]	1e-12	1e-12	1e-12	7.34304	9.34304	0	1
[321]	1e-12	1e-12	1e-12	8.32584	10.3258	0	1
[322]	1e-12	1e-12	1e-12	7.58731	9.58731	0	1
[323]	1e-12	1e-12	1e-12	10.8347	12.8347	0	1
[324]	1e-12	1e-12	1e-12	6.62364	8.62364	0	1
[325]	1e-12	1e-12	1e-12	7.07494	9.07494	0	1
[326]	1e-12	1e-12	1e-12	7.86416	9.86416	0	1
[327]	1e-12	1e-12	1e-12	6.62364	8.62364	0	1
[328]	1e-12	1e-12	1e-12	9.60141	11.6014	0	1
[329]	1e-12	1e-12	1e-12	7.71762	9.71762	0	1
[330]	1.35615	5.05132	1e-12	20.547	19.932	1.3075	0.105858
[331]	1.96161	1e-12	2.53674	34.8295	35.3043	0.762618	0.216829
[332]	1.10318	8.18181	1e-12	39.2199	34.0009	3.6095	0.00721357
[333]	0.764364	1e-12	0.976844	21.5629	23.0757	0.243609	0.485171
[334]	1e-12	1e-12	1e-12	10.8347	12.8347	0	1
[335]	0.523083	1e-12	0.668508	18.4158	19.9275	0.244152	0.484685
[336]	1.64727	6.23393	1e-12	20.9519	20.3041	1.32388	0.103696
[337]	0.699165	1e-12	0.898522	21.1133	22.6143	0.2495	0.47994
[338]	2.063	5.04465	1.29615	48.1132	48.4246	0.844277	0.193792
[339]	3.54435	1e-12	4.47782	49.8198	50.037	0.891377	0.181811
[340]	1e-12	1e-12	1e-12	10.8347	12.8347	0	1
[341]	1e-12	1e-12	1e-12	7.07494	9.07494	0	1
[342]	1e-12	1e-12	1e-12	6.62364	8.62364	0	1
[343]	1e-12	1e-12	1e-12	7.71762	9.71762	0	1
[344]	1e-12	1e-12	1e-12	8.32584	10.3258	0	1
[345]	1e-12	1e-12	1e-12	7.55618	9.55618	0	1
[346]	1e-12	1e-12	1e-12	8.32584	10.3258	0	1
[347]	1e-12	1e-12	1e-12	6.62364	8.62364	0	1
[348]	1e-12	1e-12	1e-12	8.32584	10.3258	0	1
[349]	1e-12	1e-12	1e-12	7.86416	9.86416	0	1
[350]	2.47234	3.2725	2.2906	42.3466	44.2648	0.0409291	0.774795
[351]	1e-12	1e-12	1e-12	7.71762	9.71762	0	1
[352]	1e-12	1e-12	1e-12	7.71762	9.71762	0	1
[353]	1e-12	1e-12	1e-12	6.62364	8.62364	0	1
[354]	1e-12	1e-12	1e-12	7.86416	9.86416	0	1
[355]	1e-12	1e-12	1e-12	7.71762	9.71762	0	1
[356]	0.53967	1e-12	0.694094	19.7552	21.2561	0.24956	0.479887
[357]	2.5482	2.98354	2.42968	34.8496	36.8204	0.0146324	0.864169
[358]	1e-12	1e-12	1e-12	6.62364	8.62364	0	1
[359]	0.680706	1e-12	0.868177	18.6863	20.2022	0.242054	0.486567
[360]	1e-12	1e-12	1e-12	8.34127	10.3413	0	1
[361]	1e-12	1e-12	1e-12	7.58731	9.58731	0	1
[362]	1e-12	1e-12	1e-12	7.58731	9.58731	0	1
[363]	1e-12	1e-12	1e-12	6.62364	8.62364	0	1
[364]	1e-12	1e-12	1e-12	7.87297	9.87297	0	1
[365]	1e-12	1e-12	1e-12	7.55618	9.55618	0	1
[366]	1.13639	1e-12	1.46046	23.683	24.6977	0.492695	0.320872
[367]	1e-12	1e-12	1e-12	6.62364	8.62364	0	1
[368]	1e-12	1e-12	1e-12	9.60141	11.6014	0	1
[369]	1e-12	1e-12	1e-12	7.87297	9.87297	0	1
[370]	1e-12	1e-12	1e-12	7.86416	9.86416	0	1
[371]	1e-12	1e-12	1e-12	8.75369	10.7537	0	1
[372]	1e-12	1e-12	1e-12	8.75369	10.7537	0	1
[373]	1e-12	1e-12	1e-12	7.34304	9.34304	0	1
[374]	1e-12	1e-12	1e-12	7.34304	9.34304	0	1
[375]	1e-12	1e-12	1e-12	7.07494	9.07494	0	1
[376]	1e-12	1e-12	1e-12	9.60141	11.6014	0	1
[377]	1e-12	1e-12	1e-12	8.32584	10.3258	0	1
[378]	1e-12	1e-12	1e-12	9.60141	11.6014	0	1
[379]	1e-12	1e-12	1e-12	8.75369	10.7537	0	1
[380]	1e-12	1e-12	1e-12	7.34304	9.34304	0	1
[381]	1e-12	1e-12	1e-12	6.62364	8.62364	0	1
[382]	1e-12	1e-12	1e-12	7.58731	9.58731	0	1
[383]	0.493181	1e-12	0.633351	19.9264	21.4273	0.249516	0.479925
[384]	1e-12	1e-12	1e-12	7.71762	9.71762	0	1
[385]	1e-12	1e-12	1e-12	7.07494	9.07494	0	1
[386]	1e-12	1e-12	1e-12	7.34304	9.34304	0	1
[387]	1e-12	1e-12	1e-12	8.32584	10.3258	0	1
[388]	1e-12	1e-12	1e-12	7.07494	9.07494	0	1
[389]	1e-12	1e-12	1e-12	7.55618	9.55618	0	1
[390]	1.02263	1e-12	1.3284	27.453	28.4138	0.519596	0.30801
[391]	1.43131	1e-12	1.81176	18.9844	20.5149	0.234758	0.49321
[392]	1e-12	1e-12	1e-12	7.71762	9.71762	0	1
[393]	0.918667	1e-12	1.17312	19.6895	21.2034	0.243082	0.485643
[394]	4.88538	6.64504	4.46431	64.3418	66.1662	0.0878125	0.67516
[395]	1e-12	1e-12	1e-12	9.60141	11.6014	0	1
[396]	1e-12	1e-12	1e-12	10.8347	12.8347	0	1
[397]	1e-12	1e-12	1e-12	8.32584	10.3258	0	1
[398]	1e-12	1e-12	1e-12	8.24531	10.2453	0	1
[399]	1e-12	1e-12	1e-12	6.62364	8.62364	0	1
[400]	0.923649	1e-12	1.18128	18.6079	20.1187	0.244577	0.484305
[401]	2.80002	1e-12	3.66032	49.82	49.2135	1.30323	0.106429
[402]	1e-12	1e-12	1e-12	7.71762	9.71762	0	1
[403]	3.24608	1e-12	4.17169	36.5233	37.0459	0.738676	0.224189
[404]	0.598522	1e-12	0.762526	23.42	24.9376	0.241184	0.487352
[405]	0.938465	1e-12	1.19908	17.9468	19.4623	0.242295	0.486351
[406]	7.49011	7.59227	7.46835	90.6819	92.6816	0.000170596	0.985263
[407]	15.7418	2.14526	26.6355	130.566	127.215	2.67575	0.0207045
[408]	2.63107	1e-12	3.45024	53.6315	53.5	1.06577	0.144297
[409]	3.34262	11.662	1e-12	33.5232	30.6054	2.45892	0.0265808
[410]	1.41278	1e-12	1.82216	31.6638	32.6572	0.503308	0.315715
[411]	1e-12	1e-12	1e-12	7.47908	9.47908	0	1
[412]	4.49928	5.84405	4.20414	57.5989	59.4979	0.0505277	0.750567
[413]	2.74205	3.1985	2.61699	50.106	52.0772	0.0144423	0.865046
[414]	1e-12	1e-12	1e-12	8.32584	10.3258	0	1
[415]	18.5163	27.1322	16.9512	132.538	134.208	0.165257	0.565356
[416]	2.35764	2.83103	2.2321	44.4184	46.3803	0.019063	0.84519
[417]	0.482536	2.37414	1e-12	23.8937	22.7187	1.58749	0.0747742
[418]	1e-12	1e-12	1e-12	8.32584	10.3258	0	1
[419]	2.7849	5.74517	1.87885	43.597	44.4428	0.577126	0.282661
[420]	1e-12	1e-12	1e-12	7.71762	9.71762	0	1
[421]	1e-12	1e-12	1e-12	7.34304	9.34304	0	1
[422]	1e-12	1e-12	1e-12	8.34127	10.3413	0	1
[423]	4.16613	1e-12	5.04038	52.1278	52.1827	0.972514	0.163124
[424]	1e-12	1e-12	1e-12	7.86416	9.86416	0	1
[425]	1e-12	1e-12	1e-12	8.32584	10.3258	0	1
[426]	1e-12	1e-12	1e-12	8.32584	10.3258	0	1
[427]	1e-12	1e-12	1e-12	8.24531	10.2453	0	1
[428]	1e-12	1e-12	1e-12	8.39976	10.3998	0	1
[429]	1e-12	1e-12	1e-12	9.60141	11.6014	0	1
[430]	1e-12	1e-12	1e-12	8.32584	10.3258	0	1
[431]	1e-12	1e-12	1e-12	6.62364	8.62364	0	1
[432]	1e-12	1e-12	1e-12	7.71762	9.71762	0	1
[433]	1e-12	1e-12	1e-12	6.62364	8.62364	0	1
[434]	2.22242	1e-12	2.89783	42.2959	42.2221	1.03687	0.149853
[435]	1e-12	1e-12	1e-12	7.71762	9.71762	0	1
[436]	0.493181	1e-12	0.633351	19.9264	21.4273	0.249516	0.479925
[437]	1e-12	1e-12	1e-12	8.24531	10.2453	0	1
[438]	1e-12	1e-12	1e-12	7.76692	9.76692	0	1
[439]	1e-12	1e-12	1e-12	7.76692	9.76692	0	1
[440]	1e-12	1e-12	1e-12	8.75369	10.7537	0	1
[441]	1e-12	1e-12	1e-12	7.58731	9.58731	0	1
[442]	1e-12	1e-12	1e-12	7.87297	9.87297	0	1
[443]	1e-12	1e-12	1e-12	8.75369	10.7537	0	1
[444]	1e-12	1e-12	1e-12	8.24531	10.2453	0	1
[445]	1e-12	1e-12	1e-12	7.87297	9.87297	0	1
[446]	1e-12	1e-12	1e-12	7.07494	9.07494	0	1
[447]	1e-12	1e-12	1e-12	8.75369	10.7537	0	1
[448]	1e-12	1e-12	1e-12	7.86416	9.86416	0	1
[449]	9.25745	1e-12	13.3261	114.739	109.257	3.74113	0.00623098
[450]	1e-12	1e-12	1e-12	10.8347	12.8347	0	1
[451]	1e-12	1e-12	1e-12	8.34127	10.3413	0	1
[452]	6.54996	17.8534	5.13945	85.1952	85.2107	0.992228	0.158922
[453]	4.86849	4.73974	4.89492	55.5802	57.5794	0.000402639	0.977361
[454]	1e-12	1e-12	1e-12	7.58731	9.58731	0	1
[455]	1e-12	1e-12	1e-12	7.58731	9.58731	0	1
[456]	4.17543	5.6965	3.79099	65.1723	66.9671	0.1026	0.650555
[457]	1e-12	1e-12	1e-12	7.71762	9.71762	0	1
[458]	1e-12	1e-12	1e-12	7.58731	9.58731	0	1
[459]	1e-12	1e-12	1e-12	8.32584	10.3258	0	1
[460]	0.530102	1e-12	0.678492	16.847	18.3579	0.244594	0.48429
[461]	1e-12	1e-12	1e-12	7.58731	9.58731	0	1
[462]	1e-12	1e-12	1e-12	6.62364	8.62364	0	1
[463]	1.23158	3.00777	0.774295	30.8686	32.0246	0.422026	0.35824
[464]	1e-12	1e-12	1e-12	7.07494	9.07494	0	1
[465]	0.564217	2.92113	1e-12	21.2266	19.9978	1.61441	0.0723532
[466]	2.77922	2.59566	2.83062	56.2824	58.2766	0.00291814	0.939104
[467]	5.11961	1e-12	6.74013	47.3582	46.7687	1.29474	0.107575
[468]	0.493182	1e-12	0.633351	19.9264	21.4273	0.249516	0.479925
[469]	5.70917	1e-12	7.63436	60.4496	58.4353	2.00718	0.0451146
[470]	0.938592	4.9977	1e-12	18.9546	17.6326	1.661	0.0683585
[471]	3.4642	1e-12	4.72378	65.026	63.4468	1.78962	0.0585063
[472]	2.35068	1e-12	3.11731	43.3343	43.1769	1.07867	0.14189
[473]	1e-12	1e-12	1e-12	10.8347	12.8347	0	1
[474]	1e-12	1e-12	1e-12	7.27371	9.27371	0	1
[475]	0.739284	1e-12	0.964949	21.5287	22.9973	0.265735	0.465989
[476]	1e-12	1e-12	1e-12	8.32584	10.3258	0	1
[477]	1e-12	1e-12	1e-12	7.07494	9.07494	0	1
[478]	0.527515	1e-12	0.675703	17.2077	18.7147	0.246482	0.482608
[479]	1e-12	1e-12	1e-12	7.47908	9.47908	0	1
[480]	1e-12	1e-12	1e-12	7.76692	9.76692	0	1
[481]	0.869986	4.0328	1e-12	19.3346	18.3051	1.51479	0.0817596
[482]	0.558065	1e-12	0.712752	15.7132	17.2278	0.24274	0.48595
[483]	12.2618	5.20439	14.1404	120.306	121.334	0.486329	0.324018
[484]	16.5914	6.89037	20.2808	128.257	128.25	1.0033	0.156617
[485]	5.90201	15.6239	4.26921	70.2079	69.9599	1.12402	0.133784
[486]	3.09897	1e-12	4.10879	43.4842	43.7713	0.856424	0.190616
[487]	5.14342	21.9254	2.54795	58.3258	56.3613	1.98222	0.046471
[488]	3.13029	1e-12	3.43791	53.6646	54.932	0.366311	0.392034
[489]	9.26015	6.78072	9.82824	96.2895	98.1422	0.0736723	0.701086
[490]	1.83895	6.02264	0.768827	47.4819	46.5442	1.46885	0.0865337
[491]	1.26154	6.38051	1e-12	30.3184	25.923	3.19772	0.0114414
[492]	5.04804	1e-12	6.6757	50.2522	49.6928	1.27971	0.109639
[493]	1e-12	1e-12	1e-12	7.27371	9.27371	0	1
[494]	1e-12	1e-12	1e-12	10.8347	12.8347	0	1
[495]	0.938455	1e-12	1.19907	16.3656	17.881	0.242346	0.486304
[496]	4.40748	7.96986	3.61275	63.7745	65.0578	0.358325	0.397245
[497]	1e-12	1e-12	1e-12	7.71762	9.71762	0	1
[498]	0.848796	1e-12	1.08036	21.4512	22.9696	0.240799	0.4877
[499]	1e-12	1e-12	1e-12	8.24531	10.2453	0	1
[500]	1e-12	1e-12	1e-12	8.24531	10.2453	0	1
[501]	1e-12	1e-12	1e-12	8.24531	10.2453	0	1
[502]	4.19586	5.0126	3.97766	43.5218	45.4843	0.0187205	0.84657
[503]	1e-12	1e-12	1e-12	9.60141	11.6014	0	1
[504]	1e-12	1e-12	1e-12	7.86416	9.86416	0	1
[505]	1e-12	1e-12	1e-12	8.32584	10.3258	0	1
[506]	1e-12	1e-12	1e-12	7.27371	9.27371	0	1
[507]	0.849287	1e-12	1.07313	20.5808	22.1164	0.232197	0.495578
[508]	1e-12	1e-12	1e-12	8.24531	10.2453	0	1
[509]	5.95448	13.9415	4.45869	77.642	77.857	0.892465	0.181545
[510]	4.79473	1e-12	6.30065	47.4223	47.1908	1.11574	0.135225
