Group	r	r.fg	r.bg	AIC1	AIC2	diffLnL	P.value
[1]	0.103203	1e-12	0.116829	21.2882	23.0406	0.123809	0.618758
[2]	0.54655	1e-12	0.621226	48.0408	49.0332	0.503828	0.315465
[3]	0.410101	1e-12	0.468445	25.4939	27.2269	0.13349	0.605365
[4]	2.00894	1e-12	2.38211	86.0136	85.5818	1.21593	0.118892
[5]	1.86597	1.44333	1.92931	87.5017	89.4278	0.0369159	0.785837
[6]	3.63702	1.25668	4.85904	117.36	117.461	0.949594	0.168169
[7]	5.05495	7.70639	4.70811	133.36	135.13	0.11527	0.631124
[8]	2.23411	1.04097	2.56252	115.352	116.542	0.40485	0.368209
[9]	0.944502	1e-12	1.10836	64.1197	64.0605	1.0296	0.151289
[10]	4.23917	1e-12	4.7933	113.372	111.943	1.71465	0.0640489
[11]	4.34515	5.40831	4.15305	135.622	137.494	0.0639211	0.72068
[12]	0.256783	1e-12	0.290765	30.7164	32.2241	0.246145	0.482907
[13]	2.09835	4.54067	1.6701	79.0924	79.5698	0.76127	0.217236
[14]	3.80685	4.65371	3.71354	119.375	121.31	0.0328146	0.79781
[15]	6.26822	4.54726	7.7192	153.083	154.76	0.161517	0.56979
[16]	0.309776	1e-12	0.349877	20.084	21.8415	0.121259	0.622394
[17]	0.13583	1e-12	0.154876	24.0067	25.7451	0.130808	0.609012
[18]	2.48575	1.54679	2.60826	101.226	102.997	0.114567	0.632166
[19]	0.564211	1e-12	0.657468	45.2347	45.994	0.620314	0.26535
[20]	0.533517	1e-12	0.607961	49.559	50.536	0.511512	0.311803
[21]	1.8853	2.62467	1.7942	104.136	105.951	0.0922422	0.667547
[22]	2.58645	1.91823	2.71703	113.265	115.165	0.0504428	0.750769
[23]	0.110351	1e-12	0.124786	20.636	22.3911	0.122452	0.620686
[24]	0.48759	1e-12	0.559927	53.0596	53.9753	0.542156	0.297735
[25]	0.143581	1e-12	0.162246	21.5956	23.3515	0.122012	0.621315
[26]	0.366682	1e-12	0.416315	23.207	24.954	0.126508	0.614959
[27]	0.868837	1.86514	0.733295	48.103	49.5678	0.267607	0.464423
[28]	2.35262	2.20964	2.37068	100.523	102.519	0.00205674	0.948862
[29]	2.36345	3.4071	2.22137	118.222	119.977	0.122233	0.620999
[30]	1e-12	1e-12	1e-12	10.8347	12.8347	0	1
[31]	0.961949	8.40202	0.510455	76.1104	67.5428	5.28377	0.00115091
[32]	1e-12	1e-12	1e-12	7.71762	9.71762	0	1
[33]	0.870936	1e-12	0.999968	45.4251	46.36	0.53257	0.302046
[34]	1e-12	1e-12	1e-12	7.27371	9.27371	0	1
[35]	0.437223	1e-12	0.499582	47.6762	48.6244	0.525904	0.305091
[36]	0.404879	1e-12	0.457562	42.2843	43.5698	0.357262	0.397946
[37]	0.830724	1e-12	0.962236	62.0843	62.0774	1.00344	0.156586
[38]	1.04606	1e-12	1.19547	50.2891	51.0172	0.635932	0.259417
[39]	0.445515	1e-12	0.506036	36.5792	37.8262	0.376494	0.385532
[40]	1.0164	2.13325	0.926561	79.9638	81.4888	0.237494	0.490702
[41]	0.11518	1e-12	0.130867	22.3497	24.0963	0.126702	0.614688
[42]	1e-12	1e-12	1e-12	8.24531	10.2453	0	1
[43]	1.86994	5.62959	1.44623	94.285	93.4314	1.42682	0.0911676
[46]	2.81305	1e-12	3.55218	111.469	109.59	1.93943	0.0488977
[47]	1.90525	1e-12	2.27613	94.6046	93.7151	1.44478	0.0891554
[48]	4.07312	1.81423	5.06396	141.468	142.282	0.592779	0.276228
[49]	1.84513	4.08068	1.55573	107.274	107.653	0.81025	0.203022
[50]	1.53571	7.57857	0.854355	50.4205	48.5192	1.95066	0.0482482
[51]	1e-12	1e-12	1e-12	7.76692	9.76692	0	1
[52]	0.750968	1e-12	0.867842	62.0928	62.4245	0.834185	0.196477
[53]	0.55426	1e-12	0.633989	58.724	59.6595	0.532275	0.30218
[54]	1e-12	1e-12	1e-12	7.27371	9.27371	0	1
[55]	0.432324	1e-12	0.489184	31.9483	33.2189	0.364727	0.39306
[56]	0.576264	1e-12	0.652179	47.1287	48.158	0.485352	0.324505
[57]	0.911858	1.25748	0.86177	72.5136	74.4103	0.0516154	0.747986
[58]	1e-12	1e-12	1e-12	7.47908	9.47908	0	1
[59]	1e-12	1e-12	1e-12	8.75369	10.7537	0	1
[60]	1e-12	1e-12	1e-12	8.32584	10.3258	0	1
[61]	1.09185	1e-12	1.25682	51.4404	52.1097	0.665391	0.248666
[62]	0.715748	3.46599	0.461265	59.4186	57.6353	1.89164	0.0517673
[63]	1e-12	1e-12	1e-12	8.39976	10.3998	0	1
[64]	0.774235	1.35949	0.697764	54.1862	55.8825	0.151826	0.581601
[65]	0.525436	1e-12	0.59701	46.9127	47.9065	0.50308	0.315825
[66]	1e-12	1e-12	1e-12	7.07494	9.07494	0	1
[67]	1e-12	1e-12	1e-12	7.58731	9.58731	0	1
[68]	0.331712	1e-12	0.379145	43.1293	44.3307	0.399309	0.371507
[69]	2.11677	1.41026	2.23753	79.975	81.7985	0.0882505	0.674398
[70]	0.395228	1e-12	0.447275	27.034	28.5494	0.242301	0.486345
[71]	0.578728	1.15906	0.514468	46.0126	47.5768	0.217854	0.509201
[72]	1.03334	1e-12	1.21487	68.8179	68.3073	1.25532	0.113079
[73]	1.56191	1e-12	1.82487	90.9499	90.3135	1.31819	0.104441
[74]	1.3835	1e-12	1.63978	70.4034	69.4196	1.49188	0.0841042
[75]	2.25192	1.46686	2.39073	101.432	103.236	0.0981166	0.657779
[76]	1.5457	10.0084	1.01702	98.711	95.5658	2.57259	0.0233111
[77]	0.273219	1e-12	0.310159	29.7326	31.228	0.252268	0.477513
[78]	3.5618	3.68803	3.5328	112.534	114.532	0.0014056	0.957715
[79]	1.60252	1.13851	1.67995	103.656	105.511	0.0721395	0.704064
[80]	3.88771	3.19145	3.97973	125.578	127.527	0.0259378	0.819831
[81]	0.355793	1e-12	0.40673	41.258	42.467	0.395512	0.373791
[82]	0.58614	1e-12	0.657882	31.557	33.1001	0.228436	0.499089
[83]	0.954152	2.9146	0.750691	87.2173	87.2105	1.0034	0.156596
[84]	0.376261	1e-12	0.428571	23.5021	25.242	0.130017	0.610096
[85]	0.541354	1e-12	0.617651	52.955	53.9164	0.519295	0.30815
[93]	0.770352	1.20391	0.708583	62.1998	64.0009	0.0994667	0.655583
[94]	2.46504	1.20829	2.84667	109.48	110.707	0.386639	0.379205
[95]	5.66098	10.1108	4.14712	147.241	148.177	0.531969	0.302319
[96]	2.11886	3.00223	2.00343	91.5442	93.3548	0.0946719	0.663463
[97]	0.527196	1.05769	0.451353	67.6045	69.1512	0.226649	0.500773
[98]	4.49993	1e-12	5.96496	127.488	125.431	2.02849	0.0439892
[99]	1.38389	0.941806	1.47203	87.7001	89.5059	0.0970943	0.659453
[100]	1.38898	1.00856	1.44386	93.6669	95.5439	0.0614909	0.725823
[101]	1.02488	2.76075	0.777322	86.8798	87.234	0.822928	0.199524
[102]	3.10619	10.4653	2.29723	133.923	132.551	1.68628	0.0662909
[103]	0.595983	1e-12	0.677356	40.6535	41.6481	0.50267	0.316022
[104]	0.616424	2.06192	0.452847	42.9118	43.7187	0.596536	0.274711
[105]	2.1016	3.60214	1.93404	109.727	111.309	0.208658	0.51828
[106]	0.543677	1e-12	0.620641	57.6288	58.3224	0.653249	0.25303
[107]	1e-12	1e-12	1e-12	7.47908	9.47908	0	1
[108]	1e-12	1e-12	1e-12	6.62364	8.62364	0	1
[109]	1e-12	1e-12	1e-12	7.71762	9.71762	0	1
[110]	1.2344	1e-12	1.769	69.1132	69.8335	0.639854	0.257953
[111]	0.75218	1e-12	0.856516	55.1785	55.9105	0.633992	0.260145
[112]	1e-12	1e-12	1e-12	8.24531	10.2453	0	1
[113]	1e-12	1e-12	1e-12	8.32584	10.3258	0	1
[114]	1e-12	1e-12	1e-12	9.60141	11.6014	0	1
[115]	0.617315	1e-12	0.704227	37.3806	38.6033	0.388626	0.377983
[116]	1e-12	1e-12	1e-12	10.8347	12.8347	0	1
[117]	0.268259	1e-12	0.309119	28.4006	29.8421	0.279284	0.454838
[118]	1e-12	1e-12	1e-12	8.24531	10.2453	0	1
[119]	1e-12	1e-12	1e-12	7.27371	9.27371	0	1
[120]	0.119138	1e-12	0.134931	19.9425	21.6955	0.12349	0.61921
[121]	0.628689	1e-12	0.731035	50.1949	50.9788	0.608075	0.270118
[122]	1e-12	1e-12	1e-12	8.39976	10.3998	0	1
[123]	1e-12	1e-12	1e-12	7.71762	9.71762	0	1
[124]	1.84991	2.97698	1.67112	84.6559	86.2205	0.217694	0.509357
[125]	4.61104	1e-12	5.36091	103.415	102.416	1.49977	0.0832884
[126]	0.198968	1e-12	0.225157	20.2354	21.9905	0.122449	0.62069
[127]	3.34557	2.45176	3.5492	143.543	145.312	0.115661	0.630546
[128]	1.08542	1e-12	1.27131	79.6647	79.2516	1.20658	0.120319
[129]	0.589477	1e-12	0.667983	31.1975	32.7359	0.230771	0.496904
[130]	0.754279	1e-12	0.82509	54.8876	55.9923	0.447649	0.344046
[131]	0.657368	1.83741	0.561659	50.1842	51.3512	0.416464	0.361427
[132]	0.19929	1e-12	0.225564	16.5866	18.3413	0.122659	0.620392
[133]	1e-12	1e-12	1e-12	6.62364	8.62364	0	1
[134]	1e-12	1e-12	1e-12	7.86416	9.86416	0	1
[135]	1e-12	1e-12	1e-12	10.8347	12.8347	0	1
[136]	1e-12	1e-12	1e-12	8.39976	10.3998	0	1
[137]	1e-12	1e-12	1e-12	7.47908	9.47908	0	1
[138]	1.21027	1e-12	1.37793	54.0283	54.5741	0.727078	0.227862
[139]	1e-12	1e-12	1e-12	7.07494	9.07494	0	1
[140]	1e-12	1e-12	1e-12	8.24531	10.2453	0	1
[141]	2.6423	2.49075	2.67107	97.0859	99.0797	0.00307574	0.937485
[142]	0.86804	1e-12	1.00172	66.8464	66.9229	0.961752	0.165471
[143]	0.605523	1e-12	0.69564	45.7681	46.4474	0.660335	0.250472
[144]	0.579936	1.00236	0.477994	35.5585	37.232	0.163244	0.567735
[145]	1.46493	1e-12	1.68599	67.0663	67.4489	0.808684	0.203459
[146]	0.129723	1e-12	0.147223	22.0475	23.795	0.126228	0.61535
[147]	0.882949	1.07912	0.852304	73.5246	75.4834	0.0206137	0.839099
[148]	2.61617	1.30075	2.84257	131.748	133.113	0.317593	0.42546
[149]	3.7718	4.48537	3.61061	114.712	116.647	0.0323918	0.799089
[150]	0.875838	1e-12	1.0253	75.5186	75.653	0.932763	0.171988
[151]	2.16002	8.01731	1.55772	88.9675	87.5727	1.69741	0.0654012
[152]	0.407901	1.21552	0.305888	38.2074	39.182	0.512698	0.311242
[153]	2.86876	1.20958	3.28916	142.921	143.815	0.552801	0.29304
[154]	2.67684	6.60354	2.11928	131.922	131.408	1.25712	0.112823
[155]	1.59417	3.43246	1.30989	71.9981	73.053	0.472519	0.330986
[156]	2.03776	1.67941	2.08593	93.2596	95.2187	0.0204292	0.839811
[157]	3.31225	1e-12	4.22343	103.654	102.452	1.60119	0.0735312
[158]	1.94773	1.23573	2.08075	113.454	115.187	0.133408	0.605475
[159]	1.95974	1.30149	2.03785	89.9172	91.7949	0.0611756	0.726498
[160]	1.11607	1.06377	1.12549	71.0789	73.0762	0.00132964	0.958873
[161]	2.01503	1.29443	2.13363	97.7267	99.5163	0.105205	0.646447
[162]	1.1911	1e-12	1.40689	71.7315	72.2682	0.731638	0.22641
[163]	1e-12	1e-12	1e-12	7.58731	9.58731	0	1
[164]	0.654707	1e-12	0.760189	56.1599	56.7282	0.715823	0.231496
[165]	2.7277	5.77058	2.37424	108.527	109.622	0.452504	0.341443
[166]	2.53969	2.34512	2.57674	86.3391	88.3288	0.0051655	0.919041
[167]	1e-12	1e-12	1e-12	7.71762	9.71762	0	1
[168]	0.809169	3.02074	0.333248	38.3077	37.0624	1.62266	0.0716274
[169]	1e-12	1e-12	1e-12	10.8347	12.8347	0	1
[170]	0.310963	1e-12	0.351403	20.2393	21.9958	0.121754	0.621684
[171]	1e-12	1e-12	1e-12	7.71762	9.71762	0	1
[172]	1e-12	1e-12	1e-12	6.62364	8.62364	0	1
[173]	1e-12	1e-12	1e-12	8.34127	10.3413	0	1
[174]	1e-12	1e-12	1e-12	8.39976	10.3998	0	1
[175]	0.131374	1e-12	0.149114	24.4222	26.1697	0.126241	0.615333
[176]	0.128336	1e-12	0.145435	23.0128	24.7632	0.12479	0.61737
[177]	0.395297	1e-12	0.447293	29.296	30.8114	0.242317	0.486331
[178]	1e-12	1e-12	1e-12	7.76692	9.76692	0	1
[179]	1e-12	1e-12	1e-12	7.47908	9.47908	0	1
[180]	0.359596	1e-12	0.4116	37.6699	38.8814	0.394278	0.374537
[181]	0.914097	1.62703	0.854258	59.002	60.7417	0.130122	0.609952
[182]	0.14786	1.72247	1e-12	21.9468	19.1157	2.41556	0.0279506
[183]	0.22036	1e-12	0.249155	17.8572	19.6128	0.1222	0.621047
[184]	1e-12	1e-12	1e-12	7.58731	9.58731	0	1
[185]	1e-12	1e-12	1e-12	7.58731	9.58731	0	1
[186]	1e-12	1e-12	1e-12	7.55618	9.55618	0	1
[187]	0.603408	1.34616	0.507872	50.5457	51.957	0.294364	0.442911
[188]	1e-12	1e-12	1e-12	9.60141	11.6014	0	1
[189]	0.313091	1.94338	0.116829	49.2266	45.9475	2.63954	0.0215831
[190]	1e-12	1e-12	1e-12	7.71762	9.71762	0	1
[191]	1e-12	1e-12	1e-12	10.8347	12.8347	0	1
[192]	0.103203	1e-12	0.116829	21.2882	23.0406	0.123809	0.618758
[193]	2.63824	0.341774	3.35944	111.583	111.462	1.06062	0.145269
[194]	1.02914	1.28134	0.986406	70.2734	72.2227	0.0253827	0.821737
[195]	0.761349	2.47923	0.559045	55.1979	54.9592	1.11938	0.134589
[196]	1.37366	1e-12	1.56135	63.9401	64.286	0.827044	0.198403
[197]	9.53697	7.30508	10.3067	156.374	158.225	0.0748645	0.698795
[198]	0.67778	1e-12	0.771884	41.6415	42.8906	0.375417	0.386212
[199]	0.790069	1e-12	0.913993	64.4209	64.9547	0.733112	0.225942
[200]	1.74155	1e-12	1.99136	52.937	53.8056	0.565668	0.28749
[201]	1.78764	6.81969	1.34595	97.0136	94.9374	2.03808	0.0434923
[202]	2.5859	4.63976	2.36129	99.3114	100.692	0.309641	0.431314
[203]	0.985516	1.18464	0.962141	94.9881	96.9544	0.0168338	0.854416
[204]	2.51254	1.18819	2.78071	101.424	102.755	0.334781	0.413204
[205]	0.6076	2.00104	0.449766	36.1195	36.9848	0.56737	0.286767
[206]	0.417423	1.48098	0.307429	49.852	50.579	0.63652	0.259197
[207]	0.445173	1e-12	0.510968	34.2846	35.7355	0.274537	0.458696
[208]	3.43919	5.45881	3.28336	119.406	121.169	0.118829	0.625903
[209]	0.940472	1.2892	0.899912	66.3889	68.2993	0.0448264	0.764619
[210]	1e-12	1e-12	1e-12	8.75369	10.7537	0	1
[211]	0.74178	1e-12	0.875247	56.0729	56.4412	0.815874	0.201461
[212]	2.6534	1.32159	2.83273	126.04	127.527	0.2566	0.473757
[213]	1.41708	1e-12	1.50715	76.7845	77.5632	0.610657	0.269103
[214]	1e-12	1e-12	1e-12	7.86416	9.86416	0	1
[215]	2.98196	1.07586	3.60568	105.225	106.037	0.594246	0.275634
[216]	1.68041	1e-12	1.97385	91.4211	90.3213	1.54991	0.0783012
[217]	1.2862	2.29861	1.15581	90.8555	92.2408	0.307382	0.433
[218]	1e-12	1e-12	1e-12	8.32584	10.3258	0	1
[219]	1.8255	1.70097	1.8393	103.062	105.056	0.00265815	0.941875
[220]	2.12487	5.40185	1.7534	102.341	102.488	0.926588	0.173414
[221]	2.27638	1.06712	2.43211	71.1966	72.9171	0.139751	0.597028
[222]	2.48224	3.40537	2.37534	123.561	125.376	0.092235	0.66756
[223]	4.19927	1e-12	5.16265	145.858	143.794	2.03207	0.0438029
[224]	2.06784	1.21536	2.21136	112.989	114.616	0.186501	0.541372
[225]	1.05728	1e-12	1.23456	80.1115	79.7645	1.17351	0.125523
[226]	1.56539	1e-12	1.85363	90.0916	88.6477	1.72198	0.0634836
[227]	0.257937	1.16946	0.144746	36.6366	36.7838	0.926431	0.173451
[228]	0.55419	1e-12	0.634685	44.2371	45.172	0.532511	0.302072
[229]	1.32749	1.23484	1.34355	92.8661	94.86	0.00304081	0.93784
[230]	2.69054	1e-12	3.37161	99.0748	97.8203	1.62724	0.0712287
[231]	1.34999	8.01508	0.952483	98.0168	94.7561	2.63034	0.0218125
[232]	0.411226	1e-12	0.467511	27.7964	29.2913	0.252553	0.477265
[233]	0.593444	1.02099	0.536542	53.0558	54.7739	0.140987	0.59541
[234]	4.0549	4.51531	3.9797	137.152	139.131	0.0108536	0.882869
[235]	1.51309	1e-12	1.76922	94.5855	93.6875	1.44898	0.0886918
[236]	1e-12	1e-12	1e-12	10.8347	12.8347	0	1
[237]	1e-12	1e-12	1e-12	8.34127	10.3413	0	1
[238]	1.00363	1e-12	1.17364	64.2848	64.7563	0.764237	0.216342
[239]	2.35785	3.62722	2.21838	129.919	131.62	0.149818	0.584111
[240]	0.998176	1.55969	0.846811	39.6454	41.4164	0.114509	0.632253
[241]	4.29172	6.77734	3.91106	114.961	116.529	0.215881	0.511126
[242]	1.63821	1.66318	1.63588	98.2729	100.273	0.000112097	0.988054
[243]	1.38538	4.45446	1.0399	89.4925	88.5043	1.49409	0.0838747
[244]	3.26136	3.51627	3.24173	115.826	117.82	0.00290975	0.939192
[245]	1.71846	1.70555	1.71987	87.0408	89.0407	2.99721e-05	0.993823
[246]	1.7014	1.01811	1.85176	95.0953	96.7442	0.175527	0.553517
[247]	2.56702	11.4825	2.0361	105.526	103.424	2.05075	0.0428452
[248]	4.3276	4.54493	4.27599	121.979	123.973	0.00283527	0.939974
[249]	1.9165	1.24148	2.05624	105.067	106.821	0.123046	0.619841
[250]	0.187026	1e-12	0.20995	23.0227	24.7934	0.114677	0.632003
[251]	0.796397	1.96983	0.662031	50.7581	52.0593	0.349365	0.403211
[252]	1e-12	1e-12	1e-12	7.58731	9.58731	0	1
[253]	0.552326	1e-12	0.61925	38.2594	39.5873	0.33605	0.41232
[254]	1e-12	1e-12	1e-12	7.71762	9.71762	0	1
[255]	1e-12	1e-12	1e-12	7.71762	9.71762	0	1
[256]	1e-12	1e-12	1e-12	6.62364	8.62364	0	1
[257]	1e-12	1e-12	1e-12	8.24531	10.2453	0	1
[258]	1e-12	1e-12	1e-12	8.24531	10.2453	0	1
[259]	1e-12	1e-12	1e-12	6.62364	8.62364	0	1
[260]	0.398763	1e-12	0.453284	41.1004	42.3356	0.382406	0.381827
[261]	1e-12	1e-12	1e-12	7.71762	9.71762	0	1
[262]	1e-12	1e-12	1e-12	8.32584	10.3258	0	1
[263]	1.97451	0.85296	2.0786	91.4351	93.1246	0.15524	0.577386
[264]	1e-12	1e-12	1e-12	8.24531	10.2453	0	1
[265]	1e-12	1e-12	1e-12	7.47908	9.47908	0	1
[266]	1e-12	1e-12	1e-12	10.8347	12.8347	0	1
[267]	2.77069	15.0381	2.05424	113.564	109.641	2.96156	0.0149435
[268]	0.479864	1.14574	0.401716	46.5825	47.9426	0.319982	0.423724
[269]	0.303086	1e-12	0.353518	32.616	33.944	0.335965	0.412379
[270]	0.886891	1.35628	0.830273	70.0018	71.8272	0.0873035	0.676049
[271]	1e-12	1e-12	1e-12	7.27371	9.27371	0	1
[272]	1.38528	2.52997	1.28245	65.3645	67.0271	0.168685	0.561352
[273]	0.655219	1.25832	0.58319	64.0714	65.6792	0.196105	0.53114
[274]	0.672178	1.39434	0.572443	52.8315	54.3444	0.243553	0.485221
[275]	0.281233	1e-12	0.320474	35.875	37.3547	0.260139	0.470723
[276]	2.74403	1.28673	3.01536	117.928	119.112	0.407811	0.366463
[277]	1.86577	2.56094	1.76089	123.359	125.159	0.100082	0.654588
[278]	1.88985	4.15772	1.65573	90.0088	91.0001	0.504331	0.315224
[279]	1.72904	1.11206	1.85058	93.9162	95.6846	0.115834	0.63029
[280]	2.41872	5.89909	2.03352	113.452	113.839	0.806594	0.204044
[281]	1.12486	1e-12	1.23872	44.9625	46.2443	0.359086	0.396744
[282]	0.621518	1.17545	0.532648	60.1944	61.799	0.197706	0.529468
[283]	3.56831	1e-12	5.1854	102.22	100.253	1.98362	0.0463936
[284]	0.432826	1e-12	0.493602	42.6317	43.5914	0.520143	0.307755
[285]	0.828601	4.02981	0.534241	57.0247	55.2339	1.8954	0.0515351
[286]	1.86371	6.07408	1.57553	113.569	113.469	1.05025	0.147251
[287]	1.50905	1.01038	1.5916	99.444	101.243	0.100325	0.654197
[288]	0.298518	1.34381	0.167515	30.0675	30.2382	0.914637	0.176213
[289]	1e-12	1e-12	1e-12	6.62364	8.62364	0	1
[290]	0.199069	1e-12	0.225278	16.4317	18.1866	0.122513	0.620599
[291]	0.132942	1e-12	0.150341	21.207	22.9616	0.122658	0.620392
[292]	0.200478	1e-12	0.227066	19.1975	20.9506	0.123429	0.619297
[293]	0.483475	1e-12	0.553241	32.4238	33.8867	0.268552	0.463635
[294]	1e-12	1e-12	1e-12	8.32584	10.3258	0	1
[295]	1e-12	1e-12	1e-12	8.75369	10.7537	0	1
[296]	0.899711	2.49027	0.726591	72.8345	73.132	0.851255	0.19196
[297]	1e-12	1e-12	1e-12	7.76692	9.76692	0	1
[298]	0.392996	1e-12	0.44475	24.4666	25.9847	0.240945	0.487567
[299]	0.500457	1e-12	0.576641	51.3402	52.2455	0.54734	0.295437
[300]	1e-12	1e-12	1e-12	8.75369	10.7537	0	1
[301]	1.21483	2.66246	1.0449	84.9974	85.9345	0.531478	0.302542
[302]	0.627273	1.23073	0.557631	63.9477	65.5325	0.207625	0.519317
[303]	0.926632	1e-12	1.07665	71.075	71.0168	1.02911	0.151387
[304]	0.198284	1.73589	1e-12	19.3688	17.0724	2.1482	0.0381933
[305]	1e-12	1e-12	1e-12	7.86416	9.86416	0	1
[306]	0.859631	1.70719	0.793094	60.1455	61.7404	0.202553	0.524464
[307]	0.835043	4.34691	0.461821	49.5432	47.5434	1.99987	0.0455073
[308]	1e-12	1e-12	1e-12	8.24531	10.2453	0	1
[309]	1.026	1.13798	1.01136	72.6892	74.6777	0.00572065	0.914818
[310]	1.35497	0.871042	1.44253	89.4154	91.2357	0.0898576	0.671618
[311]	0.132858	1e-12	0.150237	19.2049	20.9597	0.122577	0.620509
[312]	0.270551	1e-12	0.306731	32.0416	33.5423	0.249655	0.479804
[313]	1.67296	2.95847	1.53498	104.931	106.38	0.275146	0.458199
[314]	1e-12	1e-12	1e-12	7.47908	9.47908	0	1
[315]	0.716353	1e-12	0.829985	58.917	59.185	0.866035	0.188147
[316]	1.4459	1.52099	1.4355	82.2733	84.2706	0.00134258	0.958673
[330]	2.16431	1.84428	2.22354	75.4225	77.3936	0.0144727	0.864905
[331]	1.98769	1e-12	2.2497	57.4612	58.1772	0.641998	0.257157
[332]	1.19879	3.24668	0.960285	94.3656	94.75	0.807768	0.203715
[333]	1.47072	1e-12	1.70871	71.0943	71.3098	0.892273	0.181592
[334]	2.0441	1.15715	2.2044	102.521	104.131	0.194807	0.532503
[335]	2.95352	11.1764	2.39081	117.471	116.215	1.62841	0.0711271
[336]	2.02417	5.20951	1.67582	85.7428	86.3354	0.703698	0.235489
[337]	0.226286	1.1698	0.125141	29.4337	29.3629	1.0354	0.150142
[338]	1.10483	1e-12	1.2923	70.811	70.6791	1.06598	0.144257
[339]	1.66191	1.21522	1.70672	76.069	78.009	0.0300053	0.806479
[340]	2.69956	1e-12	3.22959	94.0108	92.7914	1.60972	0.0727689
[341]	0.198661	1e-12	0.224759	17.1246	18.8801	0.122248	0.620977
[342]	1e-12	1e-12	1e-12	8.24531	10.2453	0	1
[343]	0.79657	1.1683	0.720037	42.8391	44.6857	0.0767383	0.695235
[344]	1.22548	0.722853	1.30627	75.4421	77.2487	0.0967262	0.660059
[345]	0.374004	1e-12	0.422228	21.2355	22.9934	0.121051	0.622692
